<svg xmlns="http://www.w3.org/2000/svg" width="33" height="33" viewBox="0 0 33 33">
  <path id="交差_2" data-name="交差 2" d="M-2074,17902.971a16.5,16.5,0,0,1,16.5-16.5,16.5,16.5,0,0,1,16.5,16.5,16.5,16.5,0,0,1-16.5,16.5A16.5,16.5,0,0,1-2074,17902.971Zm15.438-12.693-8.115,10.7c-.553.729-.256,1.326.661,1.326h3.108a1.678,1.678,0,0,1,1.669,1.674v8.82a1.675,1.675,0,0,0,1.669,1.67h4.035a1.675,1.675,0,0,0,1.669-1.67v-8.82a1.676,1.676,0,0,1,1.669-1.674h3.108c.918,0,1.215-.6.657-1.326l-8.11-10.7a1.279,1.279,0,0,0-1.011-.547A1.27,1.27,0,0,0-2058.563,17890.277Z" transform="translate(17919.471 2074.002) rotate(90)" fill="#fff"/>
</svg>
